[
  {
    "fullname": "Nikola Tesla",
    "productivity": 3.5,
    "numberOfPatents": 300,
    "patent": {
      "invention": "Alternating current",
      "year": 1889
    }
  },
  {
    "fullname": "Benjamin Franklin",
    "productivity": 0.20000000298023224,
    "numberOfPatents": 12,
    "patent": {
      "invention": "Lightning rod",
      "year": 1749
    }
  },
  {
    "fullname": "Thomas Edison",
    "productivity": 27.799999237060547,
    "numberOfPatents": 2332,
    "patent": {
      "invention": "Light bulb",
      "year": 1879
    }
  },
  {
    "fullname": "Alexander Graham Bell",
    "productivity": 0.10000000149011612,
    "numberOfPatents": 7,
    "patent": {
      "invention": "Telephone",
      "year": 1876
    }
  },
  {
    "fullname": "George Westinghouse, Jr.",
    "productivity": 0.5,
    "numberOfPatents": 32,
    "patent": {
      "invention": "Railway air brake",
      "year": 1868
    }
  },
  {
    "fullname": "Jerome H. Lemelson",
    "productivity": 8.1999998092651367,
    "numberOfPatents": 606,
    "patent": {
      "invention": "Machine vision",
      "year": 1954
    }
  }
]